<?xml version="1.0" encoding="UTF-8" standalone="no"?>
<!-- Created with Inkscape (http://www.inkscape.org/) -->

<svg
   xmlns:dc="http://purl.org/dc/elements/1.1/"
   xmlns:cc="http://creativecommons.org/ns#"
   xmlns:rdf="http://www.w3.org/1999/02/22-rdf-syntax-ns#"
   xmlns:svg="http://www.w3.org/2000/svg"
   xmlns="http://www.w3.org/2000/svg"
   xmlns:sodipodi="http://sodipodi.sourceforge.net/DTD/sodipodi-0.dtd"
   xmlns:inkscape="http://www.inkscape.org/namespaces/inkscape"
   width="194.04741mm"
   height="119.72852mm"
   viewBox="0 0 687.56956 424.23492"
   id="svg2"
   version="1.1"
   inkscape:version="0.91 r13725"
   sodipodi:docname="3etats_undo.svg">
  <defs
     id="defs4">
    <marker
       inkscape:isstock="true"
       style="overflow:visible"
       id="marker4266"
       refX="0"
       refY="0"
       orient="auto"
       inkscape:stockid="Arrow1Lend">
      <path
         inkscape:connector-curvature="0"
         transform="matrix(-0.8,0,0,-0.8,-10,0)"
         style="fill:#000000;fill-opacity:1;fill-rule:evenodd;stroke:#000000;stroke-width:1pt;stroke-opacity:1"
         d="M 0,0 5,-5 -12.5,0 5,5 0,0 Z"
         id="path4268" />
    </marker>
    <marker
       inkscape:stockid="Arrow1Lend"
       orient="auto"
       refY="0"
       refX="0"
       id="marker6149"
       style="overflow:visible"
       inkscape:isstock="true">
      <path
         id="path6151"
         d="M 0,0 5,-5 -12.5,0 5,5 0,0 Z"
         style="fill:#000000;fill-opacity:1;fill-rule:evenodd;stroke:#000000;stroke-width:1pt;stroke-opacity:1"
         transform="matrix(-0.8,0,0,-0.8,-10,0)"
         inkscape:connector-curvature="0" />
    </marker>
    <marker
       inkscape:stockid="Arrow1Lend"
       orient="auto"
       refY="0"
       refX="0"
       id="marker5961"
       style="overflow:visible"
       inkscape:isstock="true"
       inkscape:collect="always">
      <path
         id="path5963"
         d="M 0,0 5,-5 -12.5,0 5,5 0,0 Z"
         style="fill:#000000;fill-opacity:1;fill-rule:evenodd;stroke:#000000;stroke-width:1pt;stroke-opacity:1"
         transform="matrix(-0.8,0,0,-0.8,-10,0)"
         inkscape:connector-curvature="0" />
    </marker>
    <marker
       inkscape:isstock="true"
       style="overflow:visible"
       id="marker5583"
       refX="0"
       refY="0"
       orient="auto"
       inkscape:stockid="Arrow1Lend"
       inkscape:collect="always">
      <path
         inkscape:connector-curvature="0"
         transform="matrix(-0.8,0,0,-0.8,-10,0)"
         style="fill:#000000;fill-opacity:1;fill-rule:evenodd;stroke:#000000;stroke-width:1pt;stroke-opacity:1"
         d="M 0,0 5,-5 -12.5,0 5,5 0,0 Z"
         id="path5585" />
    </marker>
    <marker
       inkscape:isstock="true"
       style="overflow:visible"
       id="marker5326"
       refX="0"
       refY="0"
       orient="auto"
       inkscape:stockid="Arrow1Lend">
      <path
         transform="matrix(-0.8,0,0,-0.8,-10,0)"
         style="fill:#000000;fill-opacity:1;fill-rule:evenodd;stroke:#000000;stroke-width:1pt;stroke-opacity:1"
         d="M 0,0 5,-5 -12.5,0 5,5 0,0 Z"
         id="path5328"
         inkscape:connector-curvature="0" />
    </marker>
    <marker
       inkscape:stockid="Arrow1Lend"
       orient="auto"
       refY="0"
       refX="0"
       id="Arrow1Lend"
       style="overflow:visible"
       inkscape:isstock="true"
       inkscape:collect="always">
      <path
         id="path5021"
         d="M 0,0 5,-5 -12.5,0 5,5 0,0 Z"
         style="fill:#000000;fill-opacity:1;fill-rule:evenodd;stroke:#000000;stroke-width:1pt;stroke-opacity:1"
         transform="matrix(-0.8,0,0,-0.8,-10,0)"
         inkscape:connector-curvature="0" />
    </marker>
  </defs>
  <sodipodi:namedview
     id="base"
     pagecolor="#ffffff"
     bordercolor="#666666"
     borderopacity="1.0"
     inkscape:pageopacity="0.0"
     inkscape:pageshadow="2"
     inkscape:zoom="0.98994949"
     inkscape:cx="207.07528"
     inkscape:cy="183.62052"
     inkscape:document-units="px"
     inkscape:current-layer="layer1"
     showgrid="true"
     fit-margin-top="0"
     fit-margin-left="0"
     fit-margin-right="0"
     fit-margin-bottom="0"
     inkscape:window-width="1920"
     inkscape:window-height="1026"
     inkscape:window-x="0"
     inkscape:window-y="25"
     inkscape:window-maximized="1">
    <inkscape:grid
       type="xygrid"
       id="grid5006"
       originx="60.315687"
       originy="-498.00389" />
  </sodipodi:namedview>
  <metadata
     id="metadata7">
    <rdf:RDF>
      <cc:Work
         rdf:about="">
        <dc:format>image/svg+xml</dc:format>
        <dc:type
           rdf:resource="http://purl.org/dc/dcmitype/StillImage" />
        <dc:title />
      </cc:Work>
    </rdf:RDF>
  </metadata>
  <g
     inkscape:label="Calque 1"
     inkscape:groupmode="layer"
     id="layer1"
     transform="translate(60.315703,-130.12339)">
    <rect
       style="fill:#00e7ff;fill-opacity:1;stroke:#000000;stroke-width:1.33086669;stroke-miterlimit:4;stroke-dasharray:none;stroke-opacity:1"
       id="rect4190"
       width="174.41536"
       height="64.308746"
       x="52.173061"
       y="130.78882" />
    <text
       xml:space="preserve"
       style="font-style:normal;font-weight:normal;font-size:40px;line-height:125%;font-family:sans-serif;text-align:center;letter-spacing:0px;word-spacing:0px;text-anchor:middle;fill:#000000;fill-opacity:1;stroke:none;stroke-width:1px;stroke-linecap:butt;stroke-linejoin:miter;stroke-opacity:1"
       x="133.49445"
       y="159.42795"
       id="text4955"
       sodipodi:linespacing="125%"><tspan
         sodipodi:role="line"
         x="133.49445"
         y="159.42795"
         style="font-size:17.5px;text-align:center;text-anchor:middle"
         id="tspan4998">Localement</tspan><tspan
         sodipodi:role="line"
         x="133.49445"
         y="181.30295"
         style="font-size:17.5px;text-align:center;text-anchor:middle"
         id="tspan4306">modifié</tspan></text>
    <rect
       y="130.78882"
       x="252.17307"
       height="64.308746"
       width="174.41536"
       id="rect4969"
       style="fill:#00e7ff;fill-opacity:1;stroke:#000000;stroke-width:1.33086669;stroke-miterlimit:4;stroke-dasharray:none;stroke-opacity:1" />
    <text
       sodipodi:linespacing="125%"
       id="text4971"
       y="163.38734"
       x="317.01526"
       style="font-style:normal;font-weight:normal;font-size:40px;line-height:125%;font-family:sans-serif;letter-spacing:0px;word-spacing:0px;fill:#000000;fill-opacity:1;stroke:none;stroke-width:1px;stroke-linecap:butt;stroke-linejoin:miter;stroke-opacity:1"
       xml:space="preserve"><tspan
         style="font-size:17.5px"
         id="tspan4975"
         y="163.38734"
         x="317.01526"
         sodipodi:role="line">Index</tspan></text>
    <rect
       style="fill:#00e7ff;fill-opacity:1;stroke:#000000;stroke-width:1.33086669;stroke-miterlimit:4;stroke-dasharray:none;stroke-opacity:1"
       id="rect4977"
       width="174.41536"
       height="64.308746"
       x="452.17307"
       y="130.78882" />
    <text
       xml:space="preserve"
       style="font-style:normal;font-weight:normal;font-size:40px;line-height:125%;font-family:sans-serif;text-align:center;letter-spacing:0px;word-spacing:0px;text-anchor:middle;fill:#000000;fill-opacity:1;stroke:none;stroke-width:1px;stroke-linecap:butt;stroke-linejoin:miter;stroke-opacity:1"
       x="541.29883"
       y="155.38734"
       id="text4979"
       sodipodi:linespacing="125%"><tspan
         sodipodi:role="line"
         x="541.29883"
         y="155.38734"
         id="tspan4983"
         style="font-size:17.5px;text-align:center;text-anchor:middle">Base de</tspan><tspan
         sodipodi:role="line"
         x="541.29883"
         y="177.26234"
         style="font-size:17.5px;text-align:center;text-anchor:middle"
         id="tspan4989">donnée git</tspan></text>
    <path
       style="fill:none;fill-rule:evenodd;stroke:#000000;stroke-width:1px;stroke-linecap:butt;stroke-linejoin:miter;stroke-opacity:1"
       d="M 139.46539,195.09756 140.4112,554.357"
       id="path5004"
       inkscape:connector-type="polyline"
       inkscape:connector-curvature="0"
       inkscape:connection-start="#rect4190" />
    <path
       inkscape:connector-curvature="0"
       inkscape:connector-type="polyline"
       id="path5008"
       d="M 339.46539,195.09756 340.4112,554.357"
       style="fill:none;fill-rule:evenodd;stroke:#000000;stroke-width:1px;stroke-linecap:butt;stroke-linejoin:miter;stroke-opacity:1" />
    <path
       style="fill:none;fill-rule:evenodd;stroke:#000000;stroke-width:1px;stroke-linecap:butt;stroke-linejoin:miter;stroke-opacity:1"
       d="M 539.46539,195.09756 540.4112,554.357"
       id="path5010"
       inkscape:connector-type="polyline"
       inkscape:connector-curvature="0" />
    <path
       style="fill:none;fill-rule:evenodd;stroke:#000000;stroke-width:1.70000005;stroke-linecap:butt;stroke-linejoin:miter;stroke-miterlimit:4;stroke-dasharray:1.7, 1.7;stroke-dashoffset:0;stroke-opacity:1;marker-end:url(#Arrow1Lend)"
       d="m 140,272.3622 c 100,-40 198.98985,1.11168 198.98985,1.11168"
       id="path5012"
       inkscape:connector-curvature="0"
       sodipodi:nodetypes="cc" />
    <path
       sodipodi:nodetypes="cc"
       inkscape:connector-curvature="0"
       id="path5324"
       d="m 340,312.3622 c 100,-40 198.98985,1.11168 198.98985,1.11168"
       style="fill:none;fill-rule:evenodd;stroke:#000000;stroke-width:1.70000005;stroke-linecap:butt;stroke-linejoin:miter;stroke-miterlimit:4;stroke-dasharray:1.7, 1.7;stroke-dashoffset:0;stroke-opacity:1;marker-end:url(#marker5326)" />
    <text
       xml:space="preserve"
       style="font-style:normal;font-weight:normal;font-size:40px;line-height:125%;font-family:sans-serif;letter-spacing:0px;word-spacing:0px;fill:#000000;fill-opacity:1;stroke:none;stroke-width:1px;stroke-linecap:butt;stroke-linejoin:miter;stroke-opacity:1"
       x="206"
       y="246.3622"
       id="text5510"
       sodipodi:linespacing="125%"><tspan
         sodipodi:role="line"
         id="tspan5512"
         x="206"
         y="246.3622"
         style="font-size:17.5px">git add </tspan></text>
    <text
       sodipodi:linespacing="125%"
       id="text5514"
       y="284.36218"
       x="396"
       style="font-style:normal;font-weight:normal;font-size:40px;line-height:125%;font-family:sans-serif;letter-spacing:0px;word-spacing:0px;fill:#000000;fill-opacity:1;stroke:none;stroke-width:1px;stroke-linecap:butt;stroke-linejoin:miter;stroke-opacity:1"
       xml:space="preserve"><tspan
         style="font-size:17.5px"
         y="284.36218"
         x="396"
         id="tspan5516"
         sodipodi:role="line">git commit </tspan></text>
    <path
       sodipodi:nodetypes="cc"
       inkscape:connector-curvature="0"
       id="path5581"
       d="m 341.53158,360.3622 c -100,-40 -198.98985,1.11168 -198.98985,1.11168"
       style="fill:none;fill-rule:evenodd;stroke:#000000;stroke-width:1.70000005;stroke-linecap:butt;stroke-linejoin:miter;stroke-miterlimit:4;stroke-dasharray:1.7, 1.7;stroke-dashoffset:0;stroke-opacity:1;marker-end:url(#marker5583)" />
    <path
       style="fill:none;fill-rule:evenodd;stroke:#000000;stroke-width:1.70000005;stroke-linecap:butt;stroke-linejoin:miter;stroke-miterlimit:4;stroke-dasharray:1.7, 1.7;stroke-dashoffset:0;stroke-opacity:1;marker-end:url(#marker5961)"
       d="m 541.53158,420.3622 c -100,-40 -198.98985,1.11168 -198.98985,1.11168"
       id="path5959"
       inkscape:connector-curvature="0"
       sodipodi:nodetypes="cc" />
    <text
       sodipodi:linespacing="125%"
       id="text6110"
       y="326.36221"
       x="184"
       style="font-style:normal;font-weight:normal;font-size:40px;line-height:125%;font-family:sans-serif;letter-spacing:0px;word-spacing:0px;fill:#000000;fill-opacity:1;stroke:none;stroke-width:1px;stroke-linecap:butt;stroke-linejoin:miter;stroke-opacity:1"
       xml:space="preserve"><tspan
         style="font-size:17.5px;fill:#000000;fill-opacity:1"
         y="326.36221"
         x="184"
         id="tspan6112"
         sodipodi:role="line">git reset HEAD</tspan></text>
    <text
       xml:space="preserve"
       style="font-style:normal;font-weight:normal;font-size:40px;line-height:125%;font-family:sans-serif;letter-spacing:0px;word-spacing:0px;fill:#ff0000;fill-opacity:1;stroke:none;stroke-width:1px;stroke-linecap:butt;stroke-linejoin:miter;stroke-opacity:1"
       x="431.91879"
       y="417.616"
       id="text6118"
       sodipodi:linespacing="125%"><tspan
         sodipodi:role="line"
         id="tspan6120"
         x="431.91879"
         y="417.616">X</tspan></text>
    <path
       style="fill:none;fill-rule:evenodd;stroke:#000000;stroke-width:1.70000005;stroke-linecap:butt;stroke-linejoin:miter;stroke-miterlimit:4;stroke-dasharray:1.7, 1.7;stroke-dashoffset:0;stroke-opacity:1;marker-end:url(#marker6149)"
       d="m 141.53158,420.3622 c -100.000006,-40 -198.989867,1.11168 -198.989867,1.11168"
       id="path6147"
       inkscape:connector-curvature="0"
       sodipodi:nodetypes="cc" />
    <text
       xml:space="preserve"
       style="font-style:normal;font-weight:normal;font-size:40px;line-height:125%;font-family:sans-serif;letter-spacing:0px;word-spacing:0px;fill:#000000;fill-opacity:1;stroke:none;stroke-width:1px;stroke-linecap:butt;stroke-linejoin:miter;stroke-opacity:1"
       x="-16.000015"
       y="386.36221"
       id="text6295"
       sodipodi:linespacing="125%"><tspan
         sodipodi:role="line"
         id="tspan6297"
         x="-16.000015"
         y="386.36221"
         style="font-size:17.5px;fill:#000000;fill-opacity:1">git checkout --</tspan></text>
    <path
       sodipodi:nodetypes="cc"
       inkscape:connector-curvature="0"
       id="path4264"
       d="m 541.53158,480.3622 c -201.53159,-37.99999 -402.03051,2.12183 -402.03051,2.12183"
       style="fill:none;fill-rule:evenodd;stroke:#000000;stroke-width:1.70000005;stroke-linecap:butt;stroke-linejoin:miter;stroke-miterlimit:4;stroke-dasharray:1.7, 1.7;stroke-dashoffset:0;stroke-opacity:1;marker-end:url(#marker4266)" />
    <text
       xml:space="preserve"
       style="font-style:normal;font-weight:normal;font-size:40px;line-height:125%;font-family:sans-serif;letter-spacing:0px;word-spacing:0px;fill:#000000;fill-opacity:1;stroke:none;stroke-width:1px;stroke-linecap:butt;stroke-linejoin:miter;stroke-opacity:1"
       x="284"
       y="450.36221"
       id="text4280"
       sodipodi:linespacing="125%"><tspan
         sodipodi:role="line"
         id="tspan4282"
         x="284"
         y="450.36221"
         style="font-size:17.5px;fill:#000000;fill-opacity:1">git rm --cached</tspan></text>
    <rect
       y="130.78882"
       x="-147.82693"
       height="64.308746"
       width="174.41536"
       id="rect4308"
       style="fill:#00e7ff;fill-opacity:1;stroke:#000000;stroke-width:1.33086669;stroke-miterlimit:4;stroke-dasharray:none;stroke-opacity:1" />
    <text
       sodipodi:linespacing="125%"
       id="text4314"
       y="159.42795"
       x="-66.505547"
       style="font-style:normal;font-weight:normal;font-size:40px;line-height:125%;font-family:sans-serif;text-align:center;letter-spacing:0px;word-spacing:0px;text-anchor:middle;fill:#000000;fill-opacity:1;stroke:none;stroke-width:1px;stroke-linecap:butt;stroke-linejoin:miter;stroke-opacity:1"
       xml:space="preserve"><tspan
         id="tspan4318"
         style="font-size:17.5px;text-align:center;text-anchor:middle"
         y="159.42795"
         x="-66.505547"
         sodipodi:role="line">Dossier de</tspan><tspan
         style="font-size:17.5px;text-align:center;text-anchor:middle"
         y="181.30295"
         x="-66.505547"
         sodipodi:role="line"
         id="tspan4322">travail</tspan></text>
  </g>
</svg>
